Division,WeightClassKg,Place,Name,Team,BodyweightKg,Best3SquatKg,Best3BenchKg,Best3DeadliftKg,TotalKg,Equipment,Event,Sex
Boys,51.71,1,Joel Santillan,Clifton,51.44,140.61,90.72,151.95,383.29,Single-ply,SBD,M
Boys,51.71,2,Darrian Clark,Lorena,44.09,117.93,61.23,122.47,301.64,Single-ply,SBD,M
Boys,51.71,3,Weslee Duke,Groesbeck,51.35,111.13,65.77,124.74,301.64,Single-ply,SBD,M
Boys,51.71,4,Jay King,Bosqueville,50.35,117.93,63.5,104.33,285.76,Single-ply,SBD,M
Boys,51.71,5,Josiah Olvera,Riesel,50.89,102.06,47.63,108.86,258.55,Single-ply,SBD,M
Boys,51.71,6,Matthew Owens,Lorena,51.17,86.18,52.16,117.93,256.28,Single-ply,SBD,M
Boys,51.71,7,Dylan Charles,Gatesville,51.44,97.52,52.16,104.33,254.01,Single-ply,SBD,M
Boys,51.71,8,Jesse Corvin,West,48.53,92.99,52.16,97.52,242.67,Single-ply,SBD,M
Boys,51.71,9,Demitrius Parker,Waco La Vega,44.81,86.18,56.7,83.91,226.8,Single-ply,SBD,M
Boys,55.79,1,Faison Stroup,Waco University,55.79,154.22,83.91,154.22,392.36,Single-ply,SBD,M
Boys,55.79,2,Michael Oster,Troy,55.52,142.88,83.91,163.29,390.09,Single-ply,SBD,M
Boys,55.79,3,Trevor Uptmor,West,54.52,149.69,88.45,142.88,381.02,Single-ply,SBD,M
Boys,55.79,4,Joe-Angel Carpenter,Troy,55.25,149.69,92.99,136.08,378.75,Single-ply,SBD,M
Boys,55.79,5,Gilberto Olguin,Waco Connally,55.61,149.69,81.65,145.15,376.48,Single-ply,SBD,M
Boys,55.79,6,Joseph Rangel,Cameron Yoe,55.7,124.74,79.38,156.49,360.61,Single-ply,SBD,M
Boys,55.79,7,Hao Tran,Gatesville,55.7,136.08,81.65,142.88,360.61,Single-ply,SBD,M
Boys,55.79,8,Khyran Jones,McGregor,55.7,127.01,77.11,154.22,358.34,Single-ply,SBD,M
Boys,55.79,9,Chris Eckenrode,Riesel,55.34,113.4,68.04,133.81,315.25,Single-ply,SBD,M
Boys,55.79,10,Colby Williamson,Troy,55.7,122.47,79.38,113.4,315.25,Single-ply,SBD,M
Boys,55.79,11,Joseph Barnes,Gatesville,53.8,108.86,61.23,131.54,301.64,Single-ply,SBD,M
Boys,55.79,12,Caden Crenshaw,Lorena,55.7,111.13,58.97,113.4,283.5,Single-ply,SBD,M
Boys,55.79,DQ,John Reed,Groesbeck,55.79,,,,,Single-ply,SBD,M
Boys,55.79,DQ,Andrew Silva,Rice,55.07,,,,,Single-ply,SBD,M
Boys,59.87,1,Fausto Rodriguez,West,58.97,204.12,111.13,192.78,508.02,Single-ply,SBD,M
Boys,59.87,2,Ethan Rodriguez,Lorena,59.06,149.69,61.23,170.1,381.02,Single-ply,SBD,M
Boys,59.87,3,Stetson Thompson,Riesel,58.51,131.54,79.38,149.69,360.61,Single-ply,SBD,M
Boys,59.87,4,Lane Francis,Bosqueville,58.6,140.61,74.84,140.61,356.07,Single-ply,SBD,M
Boys,59.87,5,Weston Schasteen,Clifton,56.34,129.27,70.31,149.69,349.27,Single-ply,SBD,M
Boys,59.87,6,Coby Bollig,Whitney,59.06,129.27,72.57,142.88,344.73,Single-ply,SBD,M
Boys,59.87,7,Michael Cano,Lorena,57.61,124.74,61.23,145.15,331.12,Single-ply,SBD,M
Boys,59.87,8,James Hall,Cameron Yoe,59.06,142.88,70.31,117.93,331.12,Single-ply,SBD,M
Boys,59.87,9,Matthew Martin,Axtell,56.52,122.47,72.57,124.74,319.78,Single-ply,SBD,M
Boys,59.87,10,William Cetta,Moody,57.7,111.13,70.31,127.01,308.44,Single-ply,SBD,M
Boys,59.87,11,Marcus Tippie,McGregor,57.33,113.4,61.23,127.01,301.64,Single-ply,SBD,M
Boys,67.13,1,Devin Jackson,Waco La Vega,66.86,183.7,104.33,183.7,471.74,Single-ply,SBD,M
Boys,67.13,2,Joseph Holloway,Riesel,66.41,172.37,113.4,183.7,469.47,Single-ply,SBD,M
Boys,67.13,3,Billy Gann,Axtell,65.5,183.7,95.25,158.76,437.72,Single-ply,SBD,M
Boys,67.13,4,Vicente Torres,Troy,66.04,158.76,104.33,170.1,433.18,Single-ply,SBD,M
Boys,67.13,5,Larson Hoffmeyer,Bosqueville,64.59,151.95,79.38,161.03,392.36,Single-ply,SBD,M
Boys,67.13,6,Will Browning,Crawford,66.68,154.22,83.91,151.95,390.09,Single-ply,SBD,M
Boys,67.13,7,Holden Rogers,Clifton,66.68,147.42,81.65,158.76,387.82,Single-ply,SBD,M
Boys,67.13,8,Kevon Britt,Waco University,65.5,161.03,72.57,145.15,378.75,Single-ply,SBD,M
Boys,67.13,9,Josh Estes,Troy,63.68,136.08,68.04,161.03,365.14,Single-ply,SBD,M
Boys,67.13,10,Dakota Schramm,Gatesville,61.33,145.15,68.04,149.69,362.87,Single-ply,SBD,M
Boys,67.13,11,Mario Mendez,Thrall,64.77,136.08,86.18,133.81,356.07,Single-ply,SBD,M
Boys,67.13,12,Tommy Bernal,Rice,66.59,136.08,81.65,133.81,351.53,Single-ply,SBD,M
Boys,67.13,13,Michael Truelove,Moody,62.87,129.27,79.38,140.61,349.27,Single-ply,SBD,M
Boys,67.13,14,Henry Hubnik,Cameron Yoe,60.55,122.47,61.23,131.54,315.25,Single-ply,SBD,M
Boys,67.13,15,Robert Hodnett,Bosqueville,64.05,104.33,65.77,95.25,265.35,Single-ply,SBD,M
Boys,67.13,16,Logan Connell,Axtell,67.04,99.79,52.16,95.25,247.21,Single-ply,SBD,M
Boys,67.13,DQ,Riley Kinsey,Riesel,62.69,147.42,,,,Single-ply,SBD,M
Boys,67.13,DQ,Josh Withers,West,64.41,120.2,,,,Single-ply,SBD,M
Boys,74.84,1,Kameron Sisson,Whitney,73.12,201.85,113.4,213.19,528.44,Single-ply,SBD,M
Boys,74.84,2,Gus Mulsow,Riesel,74.57,188.24,117.93,204.12,510.29,Single-ply,SBD,M
Boys,74.84,3,Zachary Johle,Thrall,72.67,172.37,131.54,195.04,498.95,Single-ply,SBD,M
Boys,74.84,4,Colby Skarpa,West,71.3,199.58,117.93,176.9,494.42,Single-ply,SBD,M
Boys,74.84,5,Kain Klish,West,71.67,204.12,83.91,197.31,485.34,Single-ply,SBD,M
Boys,74.84,6,Zane Taylor,Crawford,74.66,190.51,90.72,204.12,485.34,Single-ply,SBD,M
Boys,74.84,7,Treston Horn,Clifton,68.76,181.44,117.93,181.44,480.81,Single-ply,SBD,M
Boys,74.84,8,Sebastion Evans,Waco University,73.66,188.24,106.59,185.97,480.81,Single-ply,SBD,M
Boys,74.84,9,Aaron Osborne,McGregor,72.39,170.1,108.86,199.58,478.54,Single-ply,SBD,M
Boys,74.84,10,Gilbert Smith,West,74.48,188.24,111.13,179.17,478.54,Single-ply,SBD,M
Boys,74.84,11,Isaac Canalas,Rice,73.48,192.78,113.4,170.1,476.27,Single-ply,SBD,M
Boys,74.84,12,Elisha Cummings,Waco La Vega,67.86,183.7,86.18,204.12,474,Single-ply,SBD,M
Boys,74.84,13,Ameer Lee,Groesbeck,69.94,185.97,95.25,192.78,474,Single-ply,SBD,M
Boys,74.84,14,Jason Renevato,Waco La Vega,71.03,170.1,83.91,174.63,428.64,Single-ply,SBD,M
Boys,74.84,15,Tyrique Carter,Groesbeck,69.85,158.76,95.25,165.56,419.57,Single-ply,SBD,M
Boys,74.84,16,Ian Smith,Bosqueville,72.39,145.15,95.25,179.17,419.57,Single-ply,SBD,M
Boys,74.84,17,Ricky Guardiola,Troy,67.59,163.29,92.99,142.88,399.16,Single-ply,SBD,M
Boys,74.84,18,Caleb Browder,McGregor,73.57,163.29,63.5,154.22,381.02,Single-ply,SBD,M
Boys,74.84,19,Roy Finn,Thrall,69.67,136.08,81.65,147.42,365.14,Single-ply,SBD,M
Boys,74.84,20,Davian Cark,Waco La Vega,72.3,108.86,88.45,136.08,333.39,Single-ply,SBD,M
Boys,74.84,DQ,Teel Mesmer,Moody,74.66,179.17,106.59,,,Single-ply,SBD,M
Boys,74.84,DQ,Nick Harborth,McGregor,71.58,129.27,83.91,,,Single-ply,SBD,M
Boys,82.1,1,Nathan Gerik,West,80.83,244.94,142.88,247.21,635.03,Single-ply,SBD,M
Boys,82.1,2,Dj Fripp,Cameron Yoe,82.01,231.33,156.49,226.8,614.62,Single-ply,SBD,M
Boys,82.1,3,Ben Roberson,Robinson,80.47,231.33,122.47,219.99,573.79,Single-ply,SBD,M
Boys,82.1,4,Bodee Humphreys,Clifton,81.56,213.19,127.01,208.65,548.85,Single-ply,SBD,M
Boys,82.1,5,Alex Aguillon,Cameron Yoe,75.02,217.72,108.86,210.92,537.51,Single-ply,SBD,M
Boys,82.1,6,Carsen Ford,Lorena,80.29,199.58,113.4,206.38,519.36,Single-ply,SBD,M
Boys,82.1,7,Jordan Morgan,Waco La Vega,80.29,197.31,102.06,204.12,503.49,Single-ply,SBD,M
Boys,82.1,8,Cooper Wagenschein,Robinson,80.29,195.04,108.86,192.78,496.68,Single-ply,SBD,M
Boys,82.1,9,Logan Sauer,Robinson,79.47,185.97,120.2,172.37,478.54,Single-ply,SBD,M
Boys,82.1,10,Ethan Linder,Robinson,77.93,183.7,108.86,183.7,476.27,Single-ply,SBD,M
Boys,82.1,11,Cordell Grant,Crawford,79.92,190.51,95.25,185.97,471.74,Single-ply,SBD,M
Boys,82.1,12,Armani Johnson,Robinson,78.65,181.44,86.18,183.7,451.32,Single-ply,SBD,M
Boys,82.1,13,Solomon Alvarado,Axtell,76.11,167.83,88.45,188.24,444.52,Single-ply,SBD,M
Boys,82.1,14,Ke'Eran Ginn,Waco La Vega,80.29,163.29,111.13,167.83,442.25,Single-ply,SBD,M
Boys,82.1,15,Hunter Heath,Bosqueville,79.83,172.37,95.25,172.37,439.98,Single-ply,SBD,M
Boys,82.1,16,Noah Jenkins,McGregor,80.83,165.56,81.65,188.24,435.45,Single-ply,SBD,M
Boys,82.1,17,Riley Perry,Clifton,78.65,170.1,104.33,154.22,428.64,Single-ply,SBD,M
Boys,82.1,18,David Lopez,West,81.37,181.44,92.99,145.15,419.57,Single-ply,SBD,M
Boys,82.1,19,Marcus Stautz,Thrall,77.38,147.42,81.65,161.03,390.09,Single-ply,SBD,M
Boys,82.1,20,Deagan Oosse,Troy,77.75,147.42,83.91,158.76,390.09,Single-ply,SBD,M
Boys,82.1,21,Kable Rowland,Thrall,76.66,149.69,77.11,158.76,385.55,Single-ply,SBD,M
Boys,82.1,22,Willie Burns,Bosqueville,80.1,127.01,90.72,127.01,344.73,Single-ply,SBD,M
Boys,82.1,23,Dallas McGee,Wortham,81.56,129.27,68.04,147.42,344.73,Single-ply,SBD,M
Boys,82.1,DQ,Matt Bodner,Moody,79.65,179.17,111.13,,,Single-ply,SBD,M
Boys,82.1,DQ,Griffen Fallwell,Whitney,78.83,147.42,,,,Single-ply,SBD,M
Boys,89.81,1,Myles McGruder,Groesbeck,88.54,258.55,138.35,267.62,664.51,Single-ply,SBD,M
Boys,89.81,2,Aaron Harralson,West,87.27,240.4,161.03,233.6,635.03,Single-ply,SBD,M
Boys,89.81,3,Hunter Isham,Lorena,87.54,226.8,147.42,226.8,601.01,Single-ply,SBD,M
Boys,89.81,4,Greg Williams,McGregor,86.82,222.26,138.35,208.65,569.26,Single-ply,SBD,M
Boys,89.81,5,Alastair Robinson,Waco University,89.54,215.46,117.93,210.92,544.31,Single-ply,SBD,M
Boys,89.81,6,Ryan Lloyd,Clifton,88.9,210.92,142.88,170.1,523.9,Single-ply,SBD,M
Boys,89.81,7,Dylan Martin,Wortham,86.18,190.51,102.06,190.51,483.08,Single-ply,SBD,M
Boys,89.81,8,Dylan Lee,Axtell,87.54,183.7,97.52,188.24,469.47,Single-ply,SBD,M
Boys,89.81,9,Ethan Trotter,Gatesville,83.28,142.88,65.77,136.08,344.73,Single-ply,SBD,M
Boys,89.81,DQ,Damian Dominguez,Grandview,85.73,204.12,,,,Single-ply,SBD,M
Boys,99.79,1,Mikey Castillo,McGregor,99.52,263.08,170.1,251.74,684.92,Single-ply,SBD,M
Boys,99.79,2,Alex Falcon,Troy,92.44,254.01,163.29,263.08,680.39,Single-ply,SBD,M
Boys,99.79,3,Alton Harris,Rice,93.44,233.6,117.93,229.06,580.6,Single-ply,SBD,M
Boys,99.79,4,Eric Rossen,Grandview,90.17,235.87,113.4,215.46,564.72,Single-ply,SBD,M
Boys,99.79,5,Weston Brown,Gatesville,90.9,215.46,129.27,217.72,562.45,Single-ply,SBD,M
Boys,99.79,6,Mason Oliver,Clifton,91.08,217.72,117.93,226.8,562.45,Single-ply,SBD,M
Boys,99.79,7,Sterling Harris,Lorena,98.97,217.72,122.47,217.72,557.92,Single-ply,SBD,M
Boys,99.79,8,Jacob Byrd #3,Lorena,96.34,226.8,115.67,204.12,546.58,Single-ply,SBD,M
Boys,99.79,9,Austin Scott,Rice,98.7,188.24,140.61,215.46,544.31,Single-ply,SBD,M
Boys,99.79,10,Gideon Fry,Lorena,99.52,208.65,120.2,183.7,512.56,Single-ply,SBD,M
Boys,99.79,11,Gustavo Aguilar,Moody,95.07,199.58,122.47,183.7,505.76,Single-ply,SBD,M
Boys,99.79,12,Damon Harp,Groesbeck,93.71,208.65,106.59,181.44,496.68,Single-ply,SBD,M
Boys,99.79,13,Edwardo Gill,Cameron Yoe,94.35,192.78,124.74,174.63,492.15,Single-ply,SBD,M
Boys,99.79,14,Zephanie Johnson,Waco University,94.17,183.7,104.33,201.85,489.88,Single-ply,SBD,M
Boys,99.79,15,Brian Williams,Waco Connally,95.8,190.51,120.2,167.83,478.54,Single-ply,SBD,M
Boys,99.79,16,Aaron Tyus,Groesbeck,90.54,183.7,102.06,183.7,469.47,Single-ply,SBD,M
Boys,99.79,17,Cole Manzoni,Riesel,98.43,188.24,86.18,170.1,444.52,Single-ply,SBD,M
Boys,99.79,18,Jarrett Murrow,Troy,93.53,142.88,90.72,161.03,394.63,Single-ply,SBD,M
Boys,99.79,19,Michael Hare,Bosqueville,99.16,147.42,86.18,142.88,376.48,Single-ply,SBD,M
Boys,99.79,DQ,Logan Davidson,Lorena,97.34,235.87,117.93,,,Single-ply,SBD,M
Boys,109.77,1,Daniel Fraire,West,107.95,306.17,179.17,233.6,718.94,Single-ply,SBD,M
Boys,109.77,2,Saul Diaz,Rice,105.78,215.46,142.88,213.19,571.53,Single-ply,SBD,M
Boys,109.77,3,Lemual Alexander,Waco University,106.78,233.6,142.88,188.24,564.72,Single-ply,SBD,M
Boys,109.77,4,Jorge Saldana,Grandview,108.41,231.33,127.01,183.7,542.04,Single-ply,SBD,M
Boys,109.77,5,Connor Laughrin,Gatesville,101.6,195.04,113.4,188.24,496.68,Single-ply,SBD,M
Boys,109.77,6,Dominic Lewis,Cameron Yoe,101.88,181.44,120.2,192.78,494.42,Single-ply,SBD,M
Boys,109.77,DQ,Louis Alvarado,Waco University,105.96,213.19,97.52,,,Single-ply,SBD,M
Boys,109.77,DQ,Logan Salisbury,Wortham,108.41,240.4,147.42,,,Single-ply,SBD,M
Boys,124.74,1,Jairo Rodriguez,Waco La Vega,122.47,285.76,161.03,242.67,689.46,Single-ply,SBD,M
Boys,124.74,2,James Baggett,Waco La Vega,114.31,226.8,158.76,226.8,612.35,Single-ply,SBD,M
Boys,124.74,3,Clayton Herridge,Groesbeck,118.84,226.8,167.83,192.78,587.4,Single-ply,SBD,M
Boys,124.74,4,Josh Escobedo,Robinson,111.31,226.8,122.47,185.97,535.24,Single-ply,SBD,M
Boys,124.74,5,Jorde Del Rio,Groesbeck,121.47,210.92,124.74,183.7,519.36,Single-ply,SBD,M
Boys,124.74,6,Gabriel Gongora,Waco La Vega,110.04,210.92,102.06,183.7,496.68,Single-ply,SBD,M
Boys,124.74,7,Jake Knuppel,Crawford,121.83,201.85,97.52,156.49,455.86,Single-ply,SBD,M
Boys,124.74,8,Hayden Keeney,Grandview,111.04,174.63,97.52,163.29,435.45,Single-ply,SBD,M
Boys,124.74,DQ,Preston Cooper,Riesel,113.4,197.31,79.38,,,Single-ply,SBD,M
Boys,124.74+,1,Seth Kohlscheen,Crawford,137.89,308.44,181.44,272.16,762.04,Single-ply,SBD,M
Boys,124.74+,2,Andrew Toledo,Robinson,127.46,272.16,147.42,244.94,664.51,Single-ply,SBD,M
Boys,124.74+,3,Adrian Lewis,Cameron Yoe,135.71,260.82,170.1,224.53,655.44,Single-ply,SBD,M
Boys,124.74+,4,Juan Rodriguez,Clifton,158.3,240.4,142.88,204.12,587.4,Single-ply,SBD,M
Boys,124.74+,5,Trace Snyder,Robinson,151.05,204.12,117.93,215.46,537.51,Single-ply,SBD,M
Boys,124.74+,6,Jacob Gallimore,Robinson,144.97,213.19,106.59,199.58,519.36,Single-ply,SBD,M
Boys,124.74+,7,Mason Kay,Robinson,128.19,181.44,104.33,170.1,455.86,Single-ply,SBD,M
