Division,WeightClassKg,Place,Name,Team,BodyweightKg,Best3SquatKg,Best3BenchKg,Best3DeadliftKg,TotalKg,Equipment,Event,Sex
Boys,51.71,1,Tucker Stout,Bridge City,50.94,108.86,61.23,131.54,301.64,Single-ply,SBD,M
Boys,51.71,2,Bryant Carruth,Lumberton,51.66,99.79,70.31,131.54,301.64,Single-ply,SBD,M
Boys,59.87,1,Lane Cappel,Nederland,58.33,122.47,65.77,127.01,315.25,Single-ply,SBD,M
Boys,59.87,2,Bailey Newcost,Nederland,56.06,102.06,68.04,133.81,303.91,Single-ply,SBD,M
Boys,67.13,1,Brice Carroll,Lumberton,64.55,142.88,102.06,156.49,401.43,Single-ply,SBD,M
Boys,67.13,2,Sean Longmire,Bridge City,65.27,142.88,88.45,165.56,396.89,Single-ply,SBD,M
Boys,67.13,3,James Pierce,Nederland,63.19,113.4,86.18,161.03,360.61,Single-ply,SBD,M
Boys,74.84,1,Colby Trahan,Bridge City,70.44,183.7,83.91,151.95,419.57,Single-ply,SBD,M
Boys,74.84,2,Ian Stoute,Lumberton,71.53,158.76,104.33,156.49,419.57,Single-ply,SBD,M
Boys,74.84,3,Duwayne Owens,Beaumont West Brook,71.21,142.88,102.06,172.37,417.3,Single-ply,SBD,M
Boys,74.84,4,Jordin Pastorella,Nederland,71.85,138.35,88.45,165.56,392.36,Single-ply,SBD,M
Boys,74.84,5,Marcus Barton,Nederland,72.89,136.08,77.11,138.35,351.53,Single-ply,SBD,M
Boys,74.84,6,Trevor Williams,Nederland,67.45,111.13,65.77,122.47,299.37,Single-ply,SBD,M
Boys,89.81,1,Mario Lopez,Nederland,82.15,174.63,99.79,163.29,437.72,Single-ply,SBD,M
Boys,82.1,2,Brandon Rodriguez #8,Nederland,81.28,154.22,106.59,167.83,428.64,Single-ply,SBD,M
Boys,82.1,3,Caleb Cook,Lumberton,77.56,142.88,95.25,163.29,401.43,Single-ply,SBD,M
Boys,82.1,4,Randolph Onyejiekega,Beaumont West Brook,77.38,161.03,70.31,149.69,381.02,Single-ply,SBD,M
Boys,82.1,DQ,Stehen Wycoff,Beaumont West Brook,81.65,,,,,Single-ply,SBD,M
Boys,82.1,DQ,Cameron McBride,Beaumont West Brook,78.79,,,,,Single-ply,SBD,M
Boys,89.81,1,Edmund Horn,Lumberton,87.77,204.12,136.08,195.04,535.24,Single-ply,SBD,M
Boys,99.79,2,Matthew Carter,Beaumont West Brook,89.9,172.37,83.91,147.42,403.7,Single-ply,SBD,M
Boys,89.81,DQ,Hunter Beaumont,Bridge City,85.14,129.27,,,,Single-ply,SBD,M
Boys,99.79,1,Zack Burkhalter,Lumberton,96.89,183.7,140.61,190.51,514.83,Single-ply,SBD,M
Boys,99.79,2,Zach Cole #2,Bridge City,95.3,224.53,124.74,142.88,492.15,Single-ply,SBD,M
Boys,99.79,3,Desmond Pickens,Beaumont West Brook,95.8,215.46,92.99,183.7,492.15,Single-ply,SBD,M
Boys,99.79,4,Jacob Frost,Nederland,97.52,161.03,102.06,167.83,430.91,Single-ply,SBD,M
Boys,109.77,1,Cody Robinson,Lumberton,109.09,215.46,151.95,195.04,562.45,Single-ply,SBD,M
Boys,109.77,2,Blake Kight,Lumberton,108.68,158.76,104.33,181.44,444.52,Single-ply,SBD,M
Boys,124.74,1,Colby Castillo,Lumberton,117.71,213.19,142.88,195.04,551.11,Single-ply,SBD,M
Boys,124.74,2,Mikael Cisneros,Lumberton,122.02,170.1,102.06,199.58,471.74,Single-ply,SBD,M
Boys,124.74,3,Stefan Griggs,Nederland,111.86,138.35,97.52,170.1,405.97,Single-ply,SBD,M
Boys,124.74,DQ,Jackson Roberts,Bridge City,117.48,,,,,Single-ply,SBD,M
Boys,124.74+,1,Adolfo Ledezma,Bridge City,126.19,165.56,97.52,131.54,394.63,Single-ply,SBD,M
